<?xml version="1.0" encoding="UTF-8" standalone="no"?>
<svg
   xmlns:dc="http://purl.org/dc/elements/1.1/"
   xmlns:cc="http://creativecommons.org/ns#"
   xmlns:rdf="http://www.w3.org/1999/02/22-rdf-syntax-ns#"
   xmlns:svg="http://www.w3.org/2000/svg"
   xmlns="http://www.w3.org/2000/svg"
   xmlns:sodipodi="http://sodipodi.sourceforge.net/DTD/sodipodi-0.dtd"
   xmlns:inkscape="http://www.inkscape.org/namespaces/inkscape"
   width="24"
   height="24"
   viewBox="0 0 6.3499999 6.3500002"
   version="1.1"
   id="svg1238"
   inkscape:version="1.0 (4035a4fb49, 2020-05-01)"
   sodipodi:docname="explore.svg">
  <defs
     id="defs1232" />
  <sodipodi:namedview
     id="base"
     pagecolor="#ffffff"
     bordercolor="#666666"
     borderopacity="1.0"
     inkscape:pageopacity="0.0"
     inkscape:pageshadow="2"
     inkscape:zoom="11.313709"
     inkscape:cx="-6.8507483"
     inkscape:cy="0.75277743"
     inkscape:document-units="mm"
     inkscape:current-layer="layer1"
     showgrid="false"
     units="px"
     inkscape:window-width="1600"
     inkscape:window-height="818"
     inkscape:window-x="0"
     inkscape:window-y="0"
     inkscape:window-maximized="1"
     inkscape:document-rotation="0" />
  <metadata
     id="metadata1235">
    <rdf:RDF>
      <cc:Work
         rdf:about="">
        <dc:format>image/svg+xml</dc:format>
        <dc:type
           rdf:resource="http://purl.org/dc/dcmitype/StillImage" />
        <dc:title />
      </cc:Work>
    </rdf:RDF>
  </metadata>
  <g
     inkscape:label="Layer 1"
     inkscape:groupmode="layer"
     id="layer1"
     transform="translate(0,-290.64998)">
    <path
       style="color:#000000;font-style:normal;font-variant:normal;font-weight:normal;font-stretch:normal;font-size:medium;line-height:normal;font-family:sans-serif;font-variant-ligatures:normal;font-variant-position:normal;font-variant-caps:normal;font-variant-numeric:normal;font-variant-alternates:normal;font-feature-settings:normal;text-indent:0;text-align:start;text-decoration:none;text-decoration-line:none;text-decoration-style:solid;text-decoration-color:#000000;letter-spacing:normal;word-spacing:normal;text-transform:none;writing-mode:lr-tb;direction:ltr;text-orientation:mixed;dominant-baseline:auto;baseline-shift:baseline;text-anchor:start;white-space:normal;shape-padding:0;clip-rule:nonzero;display:inline;overflow:visible;visibility:visible;opacity:1;isolation:auto;mix-blend-mode:normal;color-interpolation:sRGB;color-interpolation-filters:linearRGB;solid-color:#000000;solid-opacity:1;vector-effect:none;fill:#808080;fill-opacity:1;fill-rule:nonzero;stroke:none;stroke-width:0.50746721;stroke-linecap:round;stroke-linejoin:miter;stroke-miterlimit:4;stroke-dasharray:none;stroke-dashoffset:0;stroke-opacity:1;color-rendering:auto;image-rendering:auto;shape-rendering:auto;text-rendering:auto;enable-background:accumulate"
       d="m 3.1748998,290.68389 c -0.139699,0 -0.2520807,0.11238 -0.2520807,0.25208 v 0.14946 c -1.3175413,0.12017 -2.37129352,1.17109 -2.49554428,2.48745 H 0.2858907 c -0.13969083,0 -0.25208069,0.1124 -0.25208069,0.25209 0,0.13969 0.11238986,0.25209 0.25208069,0.25209 h 0.14014023 c 0.11640235,1.32459 1.17333247,2.3836 2.49678817,2.50423 v 0.1327 c 0,0.1397 0.1123817,0.25208 0.2520807,0.25208 0.1396987,0 0.2522892,-0.11238 0.2522892,-0.25208 v -0.1327 c 1.3234717,-0.12052 2.3796154,-1.17957 2.4959535,-2.50423 h 0.1407581 c 0.1396989,0 0.2522894,-0.11239 0.2522894,-0.25209 0,-0.13968 -0.1125905,-0.25209 -0.2522894,-0.25209 H 5.9218987 C 5.7977202,292.25646 4.7447463,291.20551 3.427189,291.08544 v -0.14946 c 0,-0.1397 -0.1125905,-0.25208 -0.2522892,-0.25209 z m -0.2520807,0.91172 v 0.12275 c 0,0.13968 0.1123817,0.25207 0.2520807,0.25207 0.1396987,0 0.2522892,-0.11239 0.2522892,-0.25207 v -0.12275 c 1.0418833,0.11535 1.8658401,0.93665 1.9851555,1.97727 H 5.2815292 c -0.1396907,0 -0.2520806,0.1124 -0.2520806,0.25209 0,0.13969 0.1123899,0.25209 0.2520806,0.25209 h 0.1328857 c -0.1119324,1.04897 -0.9394363,1.87836 -1.9872259,1.99428 v -0.13972 c 0,-0.13969 -0.1125905,-0.25208 -0.2522892,-0.25208 -0.139699,0 -0.2520807,0.11239 -0.2520807,0.25208 v 0.13972 c -1.0477013,-0.11601 -1.875101,-0.94538 -1.98702538,-1.99428 H 1.0682621 c 0.1396989,0 0.2520887,-0.11239 0.2520887,-0.25209 0,-0.13968 -0.1123898,-0.25209 -0.2520887,-0.25209 H 0.9378722 c 0.1192995,-1.04056 0.9431599,-1.86185 1.9849469,-1.97727 z"
       id="path835-0"
       inkscape:connector-curvature="0" />
    <path
       style="color:#000000;font-style:normal;font-variant:normal;font-weight:normal;font-stretch:normal;font-size:medium;line-height:normal;font-family:sans-serif;font-variant-ligatures:normal;font-variant-position:normal;font-variant-caps:normal;font-variant-numeric:normal;font-variant-alternates:normal;font-feature-settings:normal;text-indent:0;text-align:start;text-decoration:none;text-decoration-line:none;text-decoration-style:solid;text-decoration-color:#000000;letter-spacing:normal;word-spacing:normal;text-transform:none;writing-mode:lr-tb;direction:ltr;text-orientation:mixed;dominant-baseline:auto;baseline-shift:baseline;text-anchor:start;white-space:normal;shape-padding:0;clip-rule:nonzero;display:inline;overflow:visible;visibility:visible;opacity:1;isolation:auto;mix-blend-mode:normal;color-interpolation:sRGB;color-interpolation-filters:linearRGB;solid-color:#000000;solid-opacity:1;vector-effect:none;fill:#f40f78;fill-opacity:1;fill-rule:nonzero;stroke:none;stroke-width:0.35868883;stroke-linecap:butt;stroke-linejoin:miter;stroke-miterlimit:4;stroke-dasharray:none;stroke-dashoffset:0;stroke-opacity:1;color-rendering:auto;image-rendering:auto;shape-rendering:auto;text-rendering:auto;enable-background:accumulate"
       d="m 4.5829985,292.40328 -1.8203204,0.75078 -0.1842992,0.0788 -0.074366,0.17973 3.256e-4,3.1e-4 -0.7373371,1.83378 1.8148001,-0.74852 0.1848791,-0.077 0.078322,-0.18625 z m -0.7318781,0.73685 -0.3028724,0.77379 -0.4650287,-0.46501 z m -1.0505734,0.59472 0.4656793,0.46569 -0.7705913,0.3095 z"
       id="path865-3"
       inkscape:connector-curvature="0"
       sodipodi:nodetypes="cccccccccccccccccc" />
    <path
       inkscape:connector-curvature="0"
       id="path832"
       d="m -4.4722764,290.26286 c -0.139699,0 -0.2520807,0.11238 -0.2520807,0.25208 v 0.14946 c -1.3175413,0.12017 -2.3712935,1.17109 -2.4955443,2.48745 h -0.1413841 c -0.1396908,0 -0.2520807,0.1124 -0.2520807,0.25209 0,0.13969 0.1123899,0.25209 0.2520807,0.25209 h 0.1401402 c 0.1164024,1.32459 1.1733325,2.3836 2.4967882,2.50423 v 0.1327 c 0,0.1397 0.1123817,0.25208 0.2520807,0.25208 0.1396987,0 0.2522892,-0.11238 0.2522892,-0.25208 v -0.1327 c 1.3234717,-0.12052 2.3796154,-1.17957 2.4959535,-2.50423 h 0.1407581 c 0.1396989,0 0.2522894,-0.11239 0.2522894,-0.25209 0,-0.13968 -0.1125905,-0.25209 -0.2522894,-0.25209 h -0.1420019 c -0.1241785,-1.31642 -1.1771524,-2.36737 -2.4947097,-2.48744 v -0.14946 c 0,-0.1397 -0.1125905,-0.25208 -0.2522892,-0.25209 z m -0.2520807,0.91172 v 0.12275 c 0,0.13968 0.1123817,0.25207 0.2520807,0.25207 0.1396987,0 0.2522892,-0.11239 0.2522892,-0.25207 v -0.12275 c 1.0418833,0.11535 1.8658401,0.93665 1.9851555,1.97727 H -2.365647 c -0.1396907,0 -0.2520806,0.1124 -0.2520806,0.25209 0,0.13969 0.1123899,0.25209 0.2520806,0.25209 h 0.1328857 c -0.1119324,1.04897 -0.9394363,1.87836 -1.9872259,1.99428 v -0.13972 c 0,-0.13969 -0.1125905,-0.25208 -0.2522892,-0.25208 -0.139699,0 -0.2520807,0.11239 -0.2520807,0.25208 v 0.13972 c -1.0477013,-0.11601 -1.875101,-0.94538 -1.9870254,-1.99428 h 0.1324684 c 0.1396989,0 0.2520887,-0.11239 0.2520887,-0.25209 0,-0.13968 -0.1123898,-0.25209 -0.2520887,-0.25209 H -6.709304 c 0.1192995,-1.04056 0.9431599,-1.86185 1.9849469,-1.97727 z"
       style="color:#000000;font-style:normal;font-variant:normal;font-weight:normal;font-stretch:normal;font-size:medium;line-height:normal;font-family:sans-serif;font-variant-ligatures:normal;font-variant-position:normal;font-variant-caps:normal;font-variant-numeric:normal;font-variant-alternates:normal;font-feature-settings:normal;text-indent:0;text-align:start;text-decoration:none;text-decoration-line:none;text-decoration-style:solid;text-decoration-color:#000000;letter-spacing:normal;word-spacing:normal;text-transform:none;writing-mode:lr-tb;direction:ltr;text-orientation:mixed;dominant-baseline:auto;baseline-shift:baseline;text-anchor:start;white-space:normal;shape-padding:0;clip-rule:nonzero;display:inline;overflow:visible;visibility:visible;opacity:1;isolation:auto;mix-blend-mode:normal;color-interpolation:sRGB;color-interpolation-filters:linearRGB;solid-color:#000000;solid-opacity:1;vector-effect:none;fill:#697d81;fill-opacity:1;fill-rule:nonzero;stroke:none;stroke-width:0.507467;stroke-linecap:round;stroke-linejoin:miter;stroke-miterlimit:4;stroke-dasharray:none;stroke-dashoffset:0;stroke-opacity:1;color-rendering:auto;image-rendering:auto;shape-rendering:auto;text-rendering:auto;enable-background:accumulate" />
  </g>
</svg>
