<?xml version="1.0" encoding="UTF-8" standalone="no"?>
<svg
   xmlns:dc="http://purl.org/dc/elements/1.1/"
   xmlns:cc="http://creativecommons.org/ns#"
   xmlns:rdf="http://www.w3.org/1999/02/22-rdf-syntax-ns#"
   xmlns:svg="http://www.w3.org/2000/svg"
   xmlns="http://www.w3.org/2000/svg"
   xmlns:sodipodi="http://sodipodi.sourceforge.net/DTD/sodipodi-0.dtd"
   xmlns:inkscape="http://www.inkscape.org/namespaces/inkscape"
   sodipodi:docname="explore-thin.svg"
   inkscape:version="1.0 (4035a4fb49, 2020-05-01)"
   id="svg1238"
   version="1.1"
   viewBox="0 0 6.3499999 6.3500002"
   height="24"
   width="24">
  <defs
     id="defs1232" />
  <sodipodi:namedview
     inkscape:document-rotation="0"
     inkscape:window-maximized="1"
     inkscape:window-y="0"
     inkscape:window-x="0"
     inkscape:window-height="818"
     inkscape:window-width="1600"
     units="px"
     showgrid="false"
     inkscape:current-layer="layer1"
     inkscape:document-units="mm"
     inkscape:cy="23.506159"
     inkscape:cx="2.2095285"
     inkscape:zoom="11.313709"
     inkscape:pageshadow="2"
     inkscape:pageopacity="0.0"
     borderopacity="1.0"
     bordercolor="#666666"
     pagecolor="#ffffff"
     id="base" />
  <metadata
     id="metadata1235">
    <rdf:RDF>
      <cc:Work
         rdf:about="">
        <dc:format>image/svg+xml</dc:format>
        <dc:type
           rdf:resource="http://purl.org/dc/dcmitype/StillImage" />
        <dc:title></dc:title>
      </cc:Work>
    </rdf:RDF>
  </metadata>
  <g
     transform="translate(0,-290.64998)"
     id="layer1"
     inkscape:groupmode="layer"
     inkscape:label="Layer 1">
    <path
       inkscape:connector-curvature="0"
       id="path835-0"
       d="m 10.564441,290.68389 c -0.139699,0 -0.252081,0.11238 -0.252081,0.25208 v 0.14946 c -1.3175411,0.12017 -2.3712934,1.17109 -2.4955441,2.48745 H 7.6754318 c -0.1396909,0 -0.2520807,0.1124 -0.2520807,0.25209 0,0.13969 0.1123898,0.25209 0.2520807,0.25209 H 7.815572 c 0.1164023,1.32459 1.1733325,2.3836 2.496788,2.50423 v 0.1327 c 0,0.1397 0.112382,0.25208 0.252081,0.25208 0.139699,0 0.252289,-0.11238 0.252289,-0.25208 v -0.1327 c 1.323472,-0.12052 2.379615,-1.17957 2.495954,-2.50423 h 0.140758 c 0.139699,0 0.252289,-0.11239 0.252289,-0.25209 0,-0.13968 -0.11259,-0.25209 -0.252289,-0.25209 H 13.31144 c -0.124179,-1.31642 -1.177153,-2.36737 -2.49471,-2.48744 v -0.14946 c 0,-0.1397 -0.11259,-0.25208 -0.252289,-0.25209 z m -0.252081,0.91172 v 0.12275 c 0,0.13968 0.112382,0.25207 0.252081,0.25207 0.139699,0 0.252289,-0.11239 0.252289,-0.25207 v -0.12275 c 1.041883,0.11535 1.86584,0.93665 1.985156,1.97727 H 12.67107 c -0.13969,0 -0.25208,0.1124 -0.25208,0.25209 0,0.13969 0.11239,0.25209 0.25208,0.25209 h 0.132886 c -0.111932,1.04897 -0.939436,1.87836 -1.987226,1.99428 v -0.13972 c 0,-0.13969 -0.11259,-0.25208 -0.252289,-0.25208 -0.139699,0 -0.252081,0.11239 -0.252081,0.25208 v 0.13972 c -1.0477011,-0.11601 -1.8751008,-0.94538 -1.9870252,-1.99428 h 0.1324684 c 0.1396989,0 0.2520887,-0.11239 0.2520887,-0.25209 0,-0.13968 -0.1123898,-0.25209 -0.2520887,-0.25209 H 8.3274133 c 0.1192995,-1.04056 0.9431599,-1.86185 1.9849467,-1.97727 z"
       style="color:#000000;font-style:normal;font-variant:normal;font-weight:normal;font-stretch:normal;font-size:medium;line-height:normal;font-family:sans-serif;font-variant-ligatures:normal;font-variant-position:normal;font-variant-caps:normal;font-variant-numeric:normal;font-variant-alternates:normal;font-feature-settings:normal;text-indent:0;text-align:start;text-decoration:none;text-decoration-line:none;text-decoration-style:solid;text-decoration-color:#000000;letter-spacing:normal;word-spacing:normal;text-transform:none;writing-mode:lr-tb;direction:ltr;text-orientation:mixed;dominant-baseline:auto;baseline-shift:baseline;text-anchor:start;white-space:normal;shape-padding:0;clip-rule:nonzero;display:inline;overflow:visible;visibility:visible;opacity:1;isolation:auto;mix-blend-mode:normal;color-interpolation:sRGB;color-interpolation-filters:linearRGB;solid-color:#000000;solid-opacity:1;vector-effect:none;fill:#697d81;fill-opacity:1;fill-rule:nonzero;stroke:none;stroke-width:0.507467;stroke-linecap:round;stroke-linejoin:miter;stroke-miterlimit:4;stroke-dasharray:none;stroke-dashoffset:0;stroke-opacity:1;color-rendering:auto;image-rendering:auto;shape-rendering:auto;text-rendering:auto;enable-background:accumulate" />
    <path
       sodipodi:nodetypes="cccccccccccccccccc"
       inkscape:connector-curvature="0"
       id="path865-3"
       d="m 4.5829985,292.40328 -1.8203204,0.75078 -0.1842992,0.0788 -0.074366,0.17973 3.256e-4,3.1e-4 -0.7373371,1.83378 1.8148001,-0.74852 0.1848791,-0.077 0.078322,-0.18625 z m -0.7318781,0.73685 -0.3028724,0.77379 -0.4650287,-0.46501 z m -1.0505734,0.59472 0.4656793,0.46569 -0.7705913,0.3095 z"
       style="color:#000000;font-style:normal;font-variant:normal;font-weight:normal;font-stretch:normal;font-size:medium;line-height:normal;font-family:sans-serif;font-variant-ligatures:normal;font-variant-position:normal;font-variant-caps:normal;font-variant-numeric:normal;font-variant-alternates:normal;font-feature-settings:normal;text-indent:0;text-align:start;text-decoration:none;text-decoration-line:none;text-decoration-style:solid;text-decoration-color:#000000;letter-spacing:normal;word-spacing:normal;text-transform:none;writing-mode:lr-tb;direction:ltr;text-orientation:mixed;dominant-baseline:auto;baseline-shift:baseline;text-anchor:start;white-space:normal;shape-padding:0;clip-rule:nonzero;display:inline;overflow:visible;visibility:visible;opacity:1;isolation:auto;mix-blend-mode:normal;color-interpolation:sRGB;color-interpolation-filters:linearRGB;solid-color:#000000;solid-opacity:1;vector-effect:none;fill:#f40f78;fill-opacity:1;fill-rule:nonzero;stroke:none;stroke-width:0.35868883;stroke-linecap:butt;stroke-linejoin:miter;stroke-miterlimit:4;stroke-dasharray:none;stroke-dashoffset:0;stroke-opacity:1;color-rendering:auto;image-rendering:auto;shape-rendering:auto;text-rendering:auto;enable-background:accumulate" />
    <circle
       r="2.5025074"
       cy="293.82498"
       cx="3.175"
       id="path832"
       style="fill:none;stroke:#697d81;stroke-width:0.4;stroke-miterlimit:4;stroke-dasharray:none;stroke-opacity:1" />
    <g
       style="stroke:#697d81;stroke-opacity:1;stroke-width:0.4;stroke-miterlimit:4;stroke-dasharray:none"
       id="g871">
      <path
         style="fill:none;stroke:#697d81;stroke-width:0.4;stroke-linecap:round;stroke-linejoin:miter;stroke-miterlimit:4;stroke-dasharray:none;stroke-opacity:1"
         d="m 3.1748997,291.7538 v -0.84913"
         id="path834"
         sodipodi:nodetypes="cc" />
      <path
         sodipodi:nodetypes="cc"
         id="path834-3"
         d="m 3.1708768,295.90568 v 0.84913"
         style="fill:none;stroke:#697d81;stroke-width:0.4;stroke-linecap:round;stroke-linejoin:miter;stroke-miterlimit:4;stroke-dasharray:none;stroke-opacity:1" />
    </g>
    <g
       style="stroke:#697d81;stroke-opacity:1;stroke-width:0.4;stroke-miterlimit:4;stroke-dasharray:none"
       transform="rotate(90,3.1728882,293.82974)"
       id="g877">
      <path
         sodipodi:nodetypes="cc"
         id="path873"
         d="m 3.1748997,291.7538 v -0.84913"
         style="fill:none;stroke:#697d81;stroke-width:0.4;stroke-linecap:round;stroke-linejoin:miter;stroke-miterlimit:4;stroke-dasharray:none;stroke-opacity:1" />
      <path
         style="fill:none;stroke:#697d81;stroke-width:0.4;stroke-linecap:round;stroke-linejoin:miter;stroke-miterlimit:4;stroke-dasharray:none;stroke-opacity:1"
         d="m 3.1708768,295.90568 v 0.84913"
         id="path875"
         sodipodi:nodetypes="cc" />
    </g>
  </g>
</svg>
