<?xml version="1.0" encoding="UTF-8" standalone="no"?>
<!-- Created with Inkscape (http://www.inkscape.org/) -->

<svg
   xmlns:dc="http://purl.org/dc/elements/1.1/"
   xmlns:cc="http://creativecommons.org/ns#"
   xmlns:rdf="http://www.w3.org/1999/02/22-rdf-syntax-ns#"
   xmlns:svg="http://www.w3.org/2000/svg"
   xmlns="http://www.w3.org/2000/svg"
   xmlns:sodipodi="http://sodipodi.sourceforge.net/DTD/sodipodi-0.dtd"
   xmlns:inkscape="http://www.inkscape.org/namespaces/inkscape"
   width="140mm"
   height="74mm"
   viewBox="0 0 140 74"
   version="1.1"
   id="svg2060"
   inkscape:version="0.92.4 5da689c313, 2019-01-14"
   sodipodi:docname="distribute.svg">
  <defs
     id="defs2054" />
  <sodipodi:namedview
     id="base"
     pagecolor="#ffffff"
     bordercolor="#666666"
     borderopacity="1.0"
     inkscape:pageopacity="0.0"
     inkscape:pageshadow="2"
     inkscape:zoom="1.4"
     inkscape:cx="223.61972"
     inkscape:cy="78.359668"
     inkscape:document-units="mm"
     inkscape:current-layer="layer1"
     showgrid="false"
     inkscape:window-width="1600"
     inkscape:window-height="833"
     inkscape:window-x="0"
     inkscape:window-y="27"
     inkscape:window-maximized="1" />
  <metadata
     id="metadata2057">
    <rdf:RDF>
      <cc:Work
         rdf:about="">
        <dc:format>image/svg+xml</dc:format>
        <dc:type
           rdf:resource="http://purl.org/dc/dcmitype/StillImage" />
        <dc:title></dc:title>
      </cc:Work>
    </rdf:RDF>
  </metadata>
  <g
     inkscape:label="Layer 1"
     inkscape:groupmode="layer"
     id="layer1"
     transform="translate(0,-223)">
    <g
       id="g3965"
       transform="matrix(0.91767965,0,0,0.91767965,-23.17452,468.24498)"
       style="stroke-width:1.08970487">
      <path
         id="path2945"
         d="m 166.01061,-203.43774 q -0.2532,0.54568 -0.50493,1.0768 -0.39289,0.82507 -0.77559,1.61812 c -0.11351,0.23428 -0.22701,0.46419 -0.3376,0.6941 -1.25142,2.55668 -2.4199,4.81797 -3.4123,6.67764 a 10.653085,10.653085 0 0 1 -9.28525,5.6314 l -22.06721,0.24009 h -0.23283 l -1.89168,0.0204 -1.61812,0.0175 -4.96203,0.0538 h -0.2008 l -2.52613,0.0276 h -0.0771 l -15.57001,0.16879 -13.898046,0.14552 -1.616661,0.0175 -10.040471,0.10913 h -0.01164 l -6.511755,0.0699 h -0.06985 l -20.590241,0.22264 -6.159611,0.0669 a 12.805238,12.805238 0 0 1 -1.570097,-0.0786 v 0 c -0.177527,-0.0204 -0.355054,-0.0437 -0.531126,-0.0713 a 12.715019,12.715019 0 0 1 -7.463417,-4.00745 c -2.649811,-2.91465 -4.577872,-6.31531 -5.872948,-10.00555 q -0.280842,-0.79887 -0.52385,-1.61812 c -4.483289,-15.15529 0.98222,-34.70801 10.818971,-47.79264 q 0.618435,-0.8207 1.257241,-1.60065 l 0.01019,-0.0116 c 3.025238,-3.71352 6.417171,-6.81588 10.030285,-9.02188 6.402619,-3.91578 13.49643,-5.01878 20.47383,-1.73161 5.903506,2.78222 11.415579,4.0904 16.758855,4.44545 0.539858,0.0349 1.079715,0.0611 1.616662,0.0771 12.256649,0.38562 23.743529,-4.03074 37.232679,-6.88136 0.53695,-0.1135 1.07535,-0.22554 1.61812,-0.33177 9.62285,-1.91496 20.29776,-2.92483 32.99241,-0.80178 a 27.515255,27.515255 0 0 1 3.89395,0.93129 q 0.83962,0.27065 1.61812,0.58205 c 6.05921,2.46501 9.36383,7.0196 10.76804,12.72666 q 0.19935,0.79451 0.34487,1.61667 c 2.48974,13.72779 -4.80197,33.20049 -11.11291,46.71729 z"
         inkscape:connector-curvature="0"
         style="fill:#f2f2f2;stroke-width:0.1585674" />
      <path
         id="path2947"
         d="m 98.425144,-202.36094 a 13.85585,13.85585 0 0 1 -0.272111,1.61812 H 111.7877 v -1.61812 z m -11.386476,9.13974 1.616662,-0.0131 v -3.99728 c -0.554409,-0.0247 -1.094266,-0.0495 -1.616662,-0.0757 z m -33.893137,-9.13974 v 1.61812 h 28.884543 v -1.61812 z m 123.640399,-49.40493 h -10.76804 v -12.73103 q -0.77851,-0.31577 -1.61812,-0.58206 v 13.31309 h -36.89364 v -13.44841 c -0.54277,0.10622 -1.08117,0.21827 -1.61812,0.33177 v 13.11664 H 88.65533 v -6.23528 c -0.536947,-0.016 -1.076804,-0.0422 -1.616662,-0.0771 v 6.3124 H 49.805983 v -9.02188 c -3.613114,2.206 -7.005047,5.30836 -10.030285,9.02188 h -0.01019 v 0.0116 q -0.640261,0.78577 -1.257241,1.60065 h 1.257241 v 47.79264 H 27.687845 q 0.241553,0.81925 0.52385,1.61812 h 11.552362 v 13.62303 a 12.659724,12.659724 0 0 0 1.775272,0.40598 c 0.176072,0.0276 0.353599,0.0509 0.531126,0.0713 v 0 a 12.805238,12.805238 0 0 0 1.570097,0.0786 l 6.159611,-0.0669 v -14.11486 h 37.238505 v 13.70888 l 1.616662,-0.0175 v -13.68851 h 37.23268 v 13.29416 l 1.61812,-0.0175 v -13.2767 h 36.88636 v 0.6941 c 0.11059,-0.22991 0.22409,-0.45982 0.3376,-0.6941 q 0.3827,-0.79305 0.77559,-1.61812 0.25173,-0.52967 0.50493,-1.0768 v -46.71002 h 11.12018 q -0.14696,-0.82797 -0.34486,-1.61811 z m -126.979947,49.40493 v -47.79264 h 37.232685 v 47.79264 z m 38.852257,0 v -47.79264 h 37.22977 v 47.79264 z m 75.73716,0 h -36.88927 v -47.79264 h 36.88636 z"
         inkscape:connector-curvature="0"
         style="opacity:0.1;stroke-width:0.1585674" />
      <polygon
         transform="matrix(0.14551407,0,0,0.14551407,26.101741,-267.20346)"
         id="polygon2949"
         points="298.59,509.43 300.59,509.42 315,509.3 315.38,509.29 350.93,508.99 351.22,508.99 628.62,506.65 635.41,506.6 636.09,506.6 641.27,506.55 678.92,506.24 680.92,506.21 682.77,506.19 683.73,506.19 695.44,506.1 697.76,506.07 700.87,506.05 710.62,505.96 726.09,505.83 728.09,505.81 731.57,505.79 732.22,505.79 806.93,505.15 863.09,533.65 863.09,546.65 711.17,548.05 709.55,548.08 651.81,548.61 650.43,548.63 632.88,548.78 632.36,548.78 525.38,549.77 349.77,551.4 349.62,551.4 304.97,551.82 304.49,551.83 106.09,553.65 106.09,538.65 152.74,510.65 246.34,509.87 248.34,509.86 249,509.85 251,509.82 295.94,509.45 297.95,509.44 "
         style="fill:#65617d;stroke-width:1.08970487" />
      <polygon
         transform="matrix(0.14551407,0,0,0.14551407,26.101741,-267.20346)"
         id="polygon2951"
         points="298.59,509.43 300.59,509.42 315,509.3 315.38,509.29 350.93,508.99 351.22,508.99 628.62,506.65 635.41,506.6 636.09,506.6 641.27,506.55 678.92,506.24 680.92,506.21 682.77,506.19 683.73,506.19 695.44,506.1 697.76,506.07 700.87,506.05 710.62,505.96 726.09,505.83 728.09,505.81 731.57,505.79 732.22,505.79 806.93,505.15 863.09,533.65 863.09,546.65 711.17,548.05 709.55,548.08 651.81,548.61 650.43,548.63 632.88,548.78 632.36,548.78 525.38,549.77 349.77,551.4 349.62,551.4 304.97,551.82 304.49,551.83 106.09,553.65 106.09,538.65 152.74,510.65 246.34,509.87 248.34,509.86 249,509.85 251,509.82 295.94,509.45 297.95,509.44 "
         style="opacity:0.2;stroke-width:1.08970487" />
      <path
         id="path2953"
         d="m 69.188457,-196.82413 v 3.56364 a 0.89200125,0.89200125 0 0 1 -0.509299,0.80615 0.87308442,0.87308442 0 0 1 -0.363785,0.0873 l -5.078441,0.10768 a 0.87308442,0.87308442 0 0 1 -0.392888,-0.0829 0.89054611,0.89054611 0 0 1 -0.519485,-0.81052 v -3.67132 z"
         inkscape:connector-curvature="0"
         style="fill:#3f3d56;stroke-width:0.1585674" />
      <path
         id="path2955"
         d="m 69.188457,-196.82413 v 3.56364 a 0.89200125,0.89200125 0 0 1 -0.509299,0.80615 0.87308442,0.87308442 0 0 1 -0.363785,0.0873 l -5.078441,0.10768 a 0.87308442,0.87308442 0 0 1 -0.392888,-0.0829 0.89054611,0.89054611 0 0 1 -0.519485,-0.81052 v -3.67132 z"
         inkscape:connector-curvature="0"
         style="opacity:0.1;stroke-width:0.1585674" />
      <path
         id="path2957"
         d="m 69.479486,-196.82413 v 3.56364 a 0.89200125,0.89200125 0 0 1 -0.5093,0.80615 0.87308442,0.87308442 0 0 1 -0.363785,0.0873 l -5.078441,0.10768 a 0.87308442,0.87308442 0 0 1 -0.392888,-0.0829 0.89054611,0.89054611 0 0 1 -0.519485,-0.81052 v -3.67132 z"
         inkscape:connector-curvature="0"
         style="fill:#3f3d56;stroke-width:0.1585674" />
      <rect
         id="rect2959"
         height="4.583693"
         width="6.8638983"
         y="-196.82558"
         x="125.18518"
         style="fill:#3f3d56;stroke-width:0.1585674" />
      <rect
         id="rect2961"
         height="4.583693"
         width="6.8638983"
         y="-196.82558"
         x="125.18518"
         style="opacity:0.1;stroke-width:0.1585674" />
      <rect
         id="rect2963"
         height="4.583693"
         width="6.8638983"
         y="-196.82558"
         x="124.89415"
         style="fill:#3f3d56;stroke-width:0.1585674" />
      <polygon
         transform="matrix(0.14551407,0,0,0.14551407,26.101741,-267.20346)"
         id="polygon2965"
         points="250.92,483.65 298.09,483.65 298.09,488.62 250.92,489.88 "
         style="opacity:0.1;stroke-width:1.08970487" />
      <path
         id="path2967"
         d="m 81.593532,-221.75069 v 24.47547 a 0.58205628,0.58205628 0 0 1 -0.560229,0.57478 l -27.887772,0.74212 h -0.0073 a 0.58205628,0.58205628 0 0 1 -0.574781,-0.57478 v -25.21759 a 0.58205628,0.58205628 0 0 1 0.574781,-0.57478 h 27.880495 a 0.58205628,0.58205628 0 0 1 0.574781,0.57478 z"
         inkscape:connector-curvature="0"
         style="fill:#65617d;stroke-width:0.1585674" />
      <path
         id="path2969"
         d="m 53.145531,-222.32547 v 26.36715 h -0.0073 a 0.58205628,0.58205628 0 0 1 -0.574781,-0.57478 v -25.21759 a 0.58205628,0.58205628 0 0 1 0.574781,-0.57478 z"
         inkscape:connector-curvature="0"
         style="opacity:0.1;stroke-width:0.1585674" />
      <polygon
         transform="matrix(0.14551407,0,0,0.14551407,26.101741,-267.20346)"
         id="polygon2971"
         points="194.59,471.4 194.59,319.15 372.09,319.15 372.09,467.4 "
         style="fill:#6c63ff;stroke-width:1.08970487" />
      <polygon
         transform="matrix(0.14551407,0,0,0.14551407,26.101741,-267.20346)"
         id="polygon2973"
         points="678.92,483.65 726.09,483.65 726.09,490.06 678.92,488.8 "
         style="opacity:0.1;stroke-width:1.08970487" />
      <path
         id="path2975"
         d="m 140.81776,-221.75069 v 25.21759 a 0.58205628,0.58205628 0 0 1 -0.58206,0.57478 v 0 l -27.89359,-0.74212 a 0.58205628,0.58205628 0 0 1 -0.56023,-0.57478 v -24.47547 a 0.58205628,0.58205628 0 0 1 0.57478,-0.57478 h 27.8805 a 0.58205628,0.58205628 0 0 1 0.5806,0.57478 z"
         inkscape:connector-curvature="0"
         style="fill:#65617d;stroke-width:0.1585674" />
      <path
         id="path2977"
         d="m 140.81776,-221.75069 v 25.21759 a 0.58205628,0.58205628 0 0 1 -0.58206,0.57478 v 0 -26.36715 0 a 0.58205628,0.58205628 0 0 1 0.58206,0.57478 z"
         inkscape:connector-curvature="0"
         style="opacity:0.1;stroke-width:0.1585674" />
      <polygon
         transform="matrix(0.14551407,0,0,0.14551407,26.101741,-267.20346)"
         id="polygon2979"
         points="775.59,471.4 775.59,319.15 598.09,319.15 598.09,467.4 "
         style="fill:#6c63ff;stroke-width:1.08970487" />
      <path
         id="path2981"
         d="m 111.06013,-221.75069 v 24.47547 a 0.58205628,0.58205628 0 0 1 -0.56023,0.57478 l -27.88777,0.74212 v 0 a 0.58205628,0.58205628 0 0 1 -0.582056,-0.57478 v -25.21759 a 0.58205628,0.58205628 0 0 1 0.574781,-0.57478 h 27.880495 a 0.58205628,0.58205628 0 0 1 0.57478,0.57478 z"
         inkscape:connector-curvature="0"
         style="fill:#65617d;stroke-width:0.1585674" />
      <polygon
         transform="matrix(0.14551407,0,0,0.14551407,26.101741,-267.20346)"
         id="polygon2983"
         points="397.09,471.4 397.09,319.15 574.59,319.15 574.59,467.4 "
         style="fill:#6c63ff;stroke-width:1.08970487" />
      <polygon
         transform="matrix(0.14551407,0,0,0.14551407,26.101741,-267.20346)"
         id="polygon2985"
         points="304.97,551.82 304.49,551.83 106.09,553.65 106.09,538.65 308.6,537.32 309.08,537.32 350.07,537.04 350.26,537.04 633.34,535.17 633.63,535.17 633.8,535.16 634.27,535.16 639.06,535.13 640.52,535.13 715.01,534.63 719.41,534.61 720.39,534.6 863.09,533.65 863.09,546.65 711.17,548.05 709.55,548.08 651.81,548.61 650.43,548.63 632.88,548.78 632.36,548.78 525.38,549.77 349.77,551.4 349.62,551.4 "
         style="opacity:0.1;stroke-width:1.08970487" />
      <circle
         id="circle2987"
         r="7.4692373"
         cy="-223.81844"
         cx="97.004929"
         style="fill:#fbbebe;stroke-width:0.1585674" />
      <path
         id="path2989"
         d="m 104.47562,-212.32138 c 0,0 -14.478651,1.74617 -13.096267,0 0.500569,-0.63153 0.638807,-2.50284 0.611159,-4.63462 -0.0087,-0.64754 -0.03201,-1.31836 -0.06548,-1.98627 -0.160066,-3.20131 -0.545678,-6.32986 -0.545678,-6.32986 0,0 12.659726,-5.96607 11.204586,-1.23687 -0.58206,1.9106 -0.39144,4.59388 0.0509,7.11273 0.1295,0.73485 0.27938,1.45514 0.43654,2.13906 a 50.154335,50.154335 0 0 0 1.40421,4.93583 z"
         inkscape:connector-curvature="0"
         style="fill:#fbbebe;stroke-width:0.1585674" />
      <path
         id="path2991"
         d="m 99.750778,-212.91362 c 1.674862,-0.30994 3.448682,-0.87308 5.024602,-0.22409 0.41471,0.17025 0.79596,0.41908 1.22086,0.56168 0.4249,0.14261 0.89055,0.17753 1.33291,0.27794 1.55409,0.35214 2.81424,1.53517 3.6233,2.91028 0.80906,1.37511 1.22814,2.93065 1.63849,4.47019 l 1.00405,3.75863 c 0.87308,3.26679 1.74617,6.56123 1.94843,9.93861 a 354.70801,354.70801 0 0 1 -36.50075,0.20808 c 0.791597,-1.50461 1.600655,-3.1009 1.533719,-4.80196 -0.06694,-1.70106 -1.046247,-3.37884 -0.692647,-5.05516 0.225546,-1.06807 0.956027,-1.94843 1.402755,-2.94229 1.273248,-2.84044 0.282298,-6.66309 2.520304,-8.82543 1.006957,-0.97204 2.473739,-1.34019 3.87504,-1.29362 1.786912,0.0597 3.616024,0.61698 5.38402,0.88909 2.264199,0.34341 4.403256,0.54713 6.684917,0.12805 z"
         inkscape:connector-curvature="0"
         style="fill:#f40f78;fill-opacity:1;stroke-width:0.1585674" />
      <path
         id="path2993"
         d="m 118.79857,-196.73682 -0.0145,0.20809 v 0.0145 l -0.0247,0.33468 -0.19353,2.69347 -0.23428,3.24496 -0.0669,0.91383 -0.14551,1.95571 v 0.0247 l -15.57001,0.14552 -25.550812,0.27648 v 0.12223 h -0.02037 v -0.12223 -0.0408 l 0.06548,-2.08958 0.125142,-4.08313 0.10768,-3.46178 0.01019,-0.34486 a 1.5322632,1.5322632 0 0 1 1.661771,-1.47988 c 0.686827,0.0582 1.578828,0.12951 2.645446,0.20517 l 0.436542,0.032 c 6.159611,0.42781 17.543176,0.98076 29.030061,0.29102 0.24155,-0.0131 0.48456,-0.0276 0.72757,-0.0451 1.78109,-0.11204 3.56073,-0.2561 5.32291,-0.43654 a 1.5322632,1.5322632 0 0 1 1.68796,1.63413 z"
         inkscape:connector-curvature="0"
         style="opacity:0.1;stroke-width:0.1585674" />
      <path
         id="path2995"
         d="m 76.993832,-186.80257 v -0.12223 l 25.555178,-0.27794 15.57001,-0.14551 h 0.0436 v -0.0247 l 0.14552,-1.95571 0.0626,-0.87308 0.23864,-3.29007 0.18771,-2.60471 v -0.064 a 1.5453594,1.5453594 0 0 0 -0.016,-0.35942 0.04365422,0.04365422 0 0 0 0,-0.0145 1.5118912,1.5118912 0 0 0 -0.29103,-0.67519 1.5337183,1.5337183 0 0 0 -1.37074,-0.58206 c -1.76218,0.18044 -3.54182,0.3245 -5.32291,0.43655 -0.24301,0.0175 -0.48601,0.032 -0.72757,0.0451 -11.486879,0.68246 -22.870444,0.1295 -29.030055,-0.29103 l -0.436542,-0.032 c -1.066618,-0.0757 -1.95862,-0.14551 -2.645446,-0.20517 a 1.5337183,1.5337183 0 0 0 -1.635578,1.24123 1.6006548,1.6006548 0 0 0 -0.02619,0.23865 l -0.09895,3.22459 -0.135328,4.08458 -0.06403,2.08958 v 0.0408 0.12223 z"
         inkscape:connector-curvature="0"
         style="fill:#3f3d56;stroke-width:0.1585674" />
      <path
         id="path2997"
         d="m 118.84222,-195.71676 -0.17898,2.23073 -0.26629,3.32499 -0.0669,0.83234 -0.14551,1.86404 -0.009,0.0931 v 0.0247 0 l -0.0218,0.21537 0.016,-0.21537 h -0.0422 l -15.57001,0.14552 -25.559542,0.27648 v -0.0408 l 0.0713,-2.08958 0.145515,-4.08313 0.09313,-2.71383 a 0.92546949,0.92546949 0 0 1 0.445273,-0.76395 0.90946294,0.90946294 0 0 1 0.550043,-0.13096 c 0.305579,0.0247 0.681006,0.0538 1.119003,0.0859 0.711564,0.0524 1.589014,0.1135 2.610522,0.17753 1.891683,0.11932 4.265018,0.24737 6.984676,0.35214 7.566731,0.29103 17.78182,0.38852 27.4847,-0.46128 0.43654,-0.0378 0.88763,-0.08 1.32854,-0.12223 a 0.91091808,0.91091808 0 0 1 0.50639,0.096 0.7508526,0.7508526 0 0 1 0.12514,0.0786 0.89345639,0.89345639 0 0 1 0.29103,0.35796 0.51803009,0.51803009 0 0 1 0.0364,0.0888 0.91382836,0.91382836 0 0 1 0.0524,0.37689 z"
         inkscape:connector-curvature="0"
         style="opacity:0.1;stroke-width:0.1585674" />
      <path
         id="path2999"
         d="m 69.479486,-193.72468 v 0.46419 a 0.89200125,0.89200125 0 0 1 -0.5093,0.80615 l -5.835114,0.11205 a 0.89054611,0.89054611 0 0 1 -0.519485,-0.81052 v -0.43654 z"
         inkscape:connector-curvature="0"
         style="opacity:0.1;stroke-width:0.1585674" />
      <polygon
         transform="matrix(0.14551407,0,0,0.14551407,26.101741,-267.20346)"
         id="polygon3001"
         points="298.59,506.9 298.59,515.57 246.34,516.57 246.34,507.9 "
         style="fill:#3f3d56;stroke-width:1.08970487" />
      <polygon
         transform="matrix(0.14551407,0,0,0.14551407,26.101741,-267.20346)"
         id="polygon3003"
         points="298.59,506.9 298.59,515.57 246.34,516.57 246.34,507.9 "
         style="opacity:0.1;stroke-width:1.08970487" />
      <polygon
         transform="matrix(0.14551407,0,0,0.14551407,26.101741,-267.20346)"
         id="polygon3005"
         points="300.59,506.9 300.59,515.57 248.34,516.57 248.34,507.9 "
         style="fill:#3f3d56;stroke-width:1.08970487" />
      <path
         id="path3007"
         d="m 124.93781,-193.43365 v 0.46419 a 0.89200125,0.89200125 0 0 0 0.5093,0.80615 l 5.83511,0.11204 a 0.89054611,0.89054611 0 0 0 0.51949,-0.81051 v -0.43654 z"
         inkscape:connector-curvature="0"
         style="opacity:0.1;stroke-width:0.1585674" />
      <polygon
         transform="matrix(0.14551407,0,0,0.14551407,26.101741,-267.20346)"
         id="polygon3009"
         points="678.72,508.9 678.72,517.57 730.97,518.57 730.97,509.9 "
         style="opacity:0.1;stroke-width:1.08970487" />
      <polygon
         transform="matrix(0.14551407,0,0,0.14551407,26.101741,-267.20346)"
         id="polygon3011"
         points="676.72,508.9 676.72,517.57 728.97,518.57 728.97,509.9 "
         style="fill:#3f3d56;stroke-width:1.08970487" />
      <path
         id="path3013"
         d="m 92.280085,-221.52951 c 0.01164,1.0186 -0.459824,1.979 -0.859988,2.92047 a 23.790095,23.790095 0 0 0 -1.842208,10.87136 c 0.106225,1.60065 0.375426,3.20131 0.106225,4.78741 -0.269201,1.5861 -1.226683,3.16784 -2.764767,3.6233 2.550862,1.52062 6.00391,1.36056 8.404893,-0.38707 1.279068,-0.93129 2.232185,-2.23073 3.164931,-3.50834 a 14.240007,14.240007 0 0 1 -1.936793,6.51175 15.05052,15.05052 0 0 0 10.696742,-5.93988 c 0.62716,-0.84544 1.17284,-1.77382 1.41439,-2.79824 0.44964,-1.89168 -0.17752,-3.85757 -0.65626,-5.7478 a 38.715473,38.715473 0 0 1 -0.89783,-4.80197 c -0.0626,-0.51803 -0.1135,-1.05061 0.0146,-1.557 0.14551,-0.59224 0.53403,-1.09281 0.82069,-1.63266 0.81488,-1.53372 0.8338,-3.39048 0.41618,-5.07554 -0.41763,-1.68505 -1.23542,-3.23914 -2.04593,-4.77431 -0.649,-1.23105 -1.35328,-2.51885 -2.54068,-3.24206 -0.74212,-0.45109 -1.60065,-0.6388 -2.45628,-0.82069 l -3.691688,-0.79015 c -0.807603,-0.17316 -1.638488,-0.34632 -2.454822,-0.21972 -1.378018,0.21536 -2.348597,1.21067 -3.20131,2.23218 -0.667909,0.79451 -2.300577,2.28603 -2.415533,3.32646 -0.10477,0.95893 0.742121,2.56541 0.88618,3.57673 0.189169,1.30963 0.323042,0.87309 1.062253,1.67632 0.4671,0.49766 0.768314,1.07244 0.777045,1.76945 z"
         inkscape:connector-curvature="0"
         style="fill:#3f3d56;stroke-width:0.1585674" />
      <path
         id="path3015"
         d="M 69.793796,-218.66142 H 55.300595 a 0.07276,0.07276 0 0 1 0,-0.14552 h 14.493201 a 0.07276,0.07276 0 0 1 0,0.14552 z"
         inkscape:connector-curvature="0"
         style="fill:#f2f2f2;stroke-width:0.1585674" />
      <path
         id="path3017"
         d="M 69.793796,-217.3518 H 55.300595 a 0.07275703,0.07275703 0 0 1 0,-0.14551 h 14.493201 a 0.07275703,0.07275703 0 0 1 0,0.14551 z"
         inkscape:connector-curvature="0"
         style="fill:#f2f2f2;stroke-width:0.1585674" />
      <path
         id="path3019"
         d="M 69.793796,-216.04217 H 55.300595 a 0.07275703,0.07275703 0 0 1 0,-0.14551 h 14.493201 a 0.07275703,0.07275703 0 0 1 0,0.14551 z"
         inkscape:connector-curvature="0"
         style="fill:#f2f2f2;stroke-width:0.1585674" />
    </g>
  </g>
</svg>
