<?xml version="1.0" encoding="UTF-8" standalone="no"?>
<!-- Created with Inkscape (http://www.inkscape.org/) -->

<svg
   xmlns:dc="http://purl.org/dc/elements/1.1/"
   xmlns:cc="http://creativecommons.org/ns#"
   xmlns:rdf="http://www.w3.org/1999/02/22-rdf-syntax-ns#"
   xmlns:svg="http://www.w3.org/2000/svg"
   xmlns="http://www.w3.org/2000/svg"
   xmlns:sodipodi="http://sodipodi.sourceforge.net/DTD/sodipodi-0.dtd"
   xmlns:inkscape="http://www.inkscape.org/namespaces/inkscape"
   width="210mm"
   height="13mm"
   viewBox="0 0 210 13"
   version="1.1"
   id="svg2952"
   inkscape:version="0.92.4 5da689c313, 2019-01-14"
   sodipodi:docname="bow-up-white.svg">
  <defs
     id="defs2946" />
  <sodipodi:namedview
     id="base"
     pagecolor="#868686"
     bordercolor="#666666"
     borderopacity="1.0"
     inkscape:pageopacity="0"
     inkscape:pageshadow="2"
     inkscape:zoom="179.2"
     inkscape:cx="793.81153"
     inkscape:cy="-0.47800668"
     inkscape:document-units="mm"
     inkscape:current-layer="layer1"
     showgrid="false"
     inkscape:window-width="1600"
     inkscape:window-height="833"
     inkscape:window-x="0"
     inkscape:window-y="27"
     inkscape:window-maximized="1" />
  <metadata
     id="metadata2949">
    <rdf:RDF>
      <cc:Work
         rdf:about="">
        <dc:format>image/svg+xml</dc:format>
        <dc:type
           rdf:resource="http://purl.org/dc/dcmitype/StillImage" />
        <dc:title></dc:title>
      </cc:Work>
    </rdf:RDF>
  </metadata>
  <g
     inkscape:label="Layer 1"
     inkscape:groupmode="layer"
     id="layer1"
     transform="translate(0,-284)">
    <path
       style="fill:#ffffff;fill-opacity:1;stroke:none;stroke-width:0.20619495px;stroke-linecap:butt;stroke-linejoin:miter;stroke-opacity:1"
       d="m 210.0032,297.00242 c 0,0 -30.23393,-4.98581 -50.42755,-7.50441 -35.04574,-4.37101 -71.418412,-4.53395 -107.055292,0 -20.77361,2.64294 -52.5080659,7.50447 -52.5080659,7.50447 z"
       id="path1112"
       inkscape:connector-curvature="0"
       sodipodi:nodetypes="csscc" />
  </g>
</svg>
