<?xml version="1.0" encoding="UTF-8" standalone="no"?>
<!-- Created with Inkscape (http://www.inkscape.org/) -->

<svg
   xmlns:dc="http://purl.org/dc/elements/1.1/"
   xmlns:cc="http://creativecommons.org/ns#"
   xmlns:rdf="http://www.w3.org/1999/02/22-rdf-syntax-ns#"
   xmlns:svg="http://www.w3.org/2000/svg"
   xmlns="http://www.w3.org/2000/svg"
   xmlns:xlink="http://www.w3.org/1999/xlink"
   xmlns:sodipodi="http://sodipodi.sourceforge.net/DTD/sodipodi-0.dtd"
   xmlns:inkscape="http://www.inkscape.org/namespaces/inkscape"
   width="200"
   height="200"
   viewBox="0 0 52.916665 52.916668"
   version="1.1"
   id="svg872"
   inkscape:version="0.92.2 2405546, 2018-03-11"
   sodipodi:docname="SquareLogo.svg"
   inkscape:export-filename="/home/mon/Documents/Design/Projects/Avadio/Icons/SquareLogo.png"
   inkscape:export-xdpi="192"
   inkscape:export-ydpi="192">
  <defs
     id="defs866">
    <linearGradient
       inkscape:collect="always"
       xlink:href="#linearGradient2776"
       id="linearGradient2778"
       x1="142.5883"
       y1="73.696304"
       x2="169.31525"
       y2="45.633011"
       gradientUnits="userSpaceOnUse" />
    <linearGradient
       inkscape:collect="always"
       id="linearGradient2776">
      <stop
         style="stop-color:#f40f78;stop-opacity:1;"
         offset="0"
         id="stop2772" />
      <stop
         style="stop-color:#f859a2;stop-opacity:1"
         offset="1"
         id="stop2774" />
    </linearGradient>
    <linearGradient
       inkscape:collect="always"
       xlink:href="#linearGradient2786"
       id="linearGradient2788"
       x1="136.30746"
       y1="82.850288"
       x2="167.57799"
       y2="53.04974"
       gradientUnits="userSpaceOnUse" />
    <linearGradient
       inkscape:collect="always"
       id="linearGradient2786">
      <stop
         style="stop-color:#ffbd04;stop-opacity:1"
         offset="0"
         id="stop2782" />
      <stop
         style="stop-color:#ffc524;stop-opacity:0.45901638"
         offset="1"
         id="stop2784" />
    </linearGradient>
  </defs>
  <sodipodi:namedview
     id="base"
     pagecolor="#ffffff"
     bordercolor="#666666"
     borderopacity="1.0"
     inkscape:pageopacity="0.0"
     inkscape:pageshadow="2"
     inkscape:zoom="1.979899"
     inkscape:cx="4.3226656"
     inkscape:cy="129.53953"
     inkscape:document-units="mm"
     inkscape:current-layer="layer1"
     showgrid="false"
     units="px"
     inkscape:snap-page="true"
     inkscape:window-width="1600"
     inkscape:window-height="836"
     inkscape:window-x="0"
     inkscape:window-y="27"
     inkscape:window-maximized="1" />
  <metadata
     id="metadata869">
    <rdf:RDF>
      <cc:Work
         rdf:about="">
        <dc:format>image/svg+xml</dc:format>
        <dc:type
           rdf:resource="http://purl.org/dc/dcmitype/StillImage" />
        <dc:title></dc:title>
      </cc:Work>
    </rdf:RDF>
  </metadata>
  <g
     inkscape:label="Layer 1"
     inkscape:groupmode="layer"
     id="layer1"
     transform="translate(0,-244.08332)">
    <g
       transform="matrix(1.3155479,0,0,1.3155479,-169.82565,184.05091)"
       id="g2804"
       inkscape:export-xdpi="1262.9257"
       inkscape:export-ydpi="1262.9257">
      <rect
         ry="0"
         y="45.633011"
         x="129.09119"
         height="40.224064"
         width="40.224064"
         id="rect2770"
         style="opacity:1;fill:url(#linearGradient2778);fill-opacity:1;stroke:none;stroke-width:0.88599998;stroke-linecap:round;stroke-miterlimit:4;stroke-dasharray:none;stroke-dashoffset:0;stroke-opacity:1" />
      <path
         sodipodi:nodetypes="csssccc"
         inkscape:connector-curvature="0"
         id="path2780"
         d="m 129.09119,85.857071 c 0,0 2.01593,-5.04792 3.86193,-6.949334 4.16168,-4.286615 5.47125,-3.335837 10.2042,-6.98191 7.22557,-5.566284 9.11048,-11.09318 11.73267,-15.768227 4.13131,-7.36566 14.42525,-10.52459 14.42525,-10.52459 v 40.224061 z"
         style="fill:url(#linearGradient2788);fill-opacity:1;stroke:none;stroke-width:0.26458332px;stroke-linecap:butt;stroke-linejoin:miter;stroke-opacity:1" />
      <g
         id="g2796"
         transform="matrix(1.2042674,0,0,1.2042674,126.44399,64.714604)"
         style="fill:#ffffff">
        <rect
           x="22.640347"
           y="2.5563529"
           width="3.7901278"
           height="7.2887068"
           id="rect2790"
           style="fill:#ffffff;stroke-width:0.09718276" />
        <rect
           x="11.367146"
           width="4.081676"
           height="17.978809"
           id="rect2792"
           y="-8.1337509"
           style="fill:#ffffff;stroke-width:0.09718276" />
        <rect
           x="17.003746"
           y="-2.9830644"
           width="3.9844933"
           height="12.828124"
           id="rect2794"
           style="fill:#ffffff;stroke-width:0.09718276" />
      </g>
    </g>
  </g>
</svg>
